…
Use the cleaned data for making training and testing sets


``` r
gvhd_tibble <- gvhd_tibble |> mutate(
  initial_split = purrr::map(exprs_tibble, ~ initial_split(.x, strata = `FSC-H`, prop = 0.8)),
  training = purrr::map(initial_split, ~ training(.x)),
  test = purrr::map(initial_split, ~ testing(.x))
)

gvhd_tibble
```

```
## # A tibble: 35 × 6
##    exprs    keywords     exprs_tibble initial_split       training test    
##    <list>   <list>       <list>       <list>              <list>   <list>  
##  1 <dbl[…]> <named list> <tibble>     <split [2195/551]>  <tibble> <tibble>
##  2 <dbl[…]> <named list> <tibble>     <split [1874/471]>  <tibble> <tibble>
##  3 <dbl[…]> <named list> <tibble>     <split [2310/579]>  <tibble> <tibble>
##  4 <dbl[…]> <named list> <tibble>     <split [5258/1316]> <tibble> <tibble>
##  5 <dbl[…]> <named list> <tibble>     <split [6850/1715]> <tibble> <tibble>
##  6 <dbl[…]> <named list> <tibble>     <split [2678/671]>  <tibble> <tibble>
##  7 <dbl[…]> <named list> <tibble>     <split [9838/2461]> <tibble> <tibble>
##  8 <dbl[…]> <named list> <tibble>     <split [1615/407]>  <tibble> <tibble>
##  9 <dbl[…]> <named list> <tibble>     <split [9261/2317]> <tibble> <tibble>
## 10 <dbl[…]> <named list> <tibble>     <split [7984/1998]> <tibble> <tibble>
## # ℹ 25 more rows
```
…
