…
sc_ci <- purrr::map2(sc_fit, b_tibble$exprs_tibble, function(.x, .y) {
  predict(.x, type = 'pred_int', new_data = .y, level = 0.8)
})

sc_aug <- purrr::map2(sc_fit, b_tibble$exprs_tibble, function(.x, .y) augment(.x, .y)) |> 
  purrr::map2(sc_ci,  ~ bind_cols(.x, .y))
```


``` r
sc_aug[[1]] |> select(contains('.pred'), 'FSC-A','FSC-H')
```

```
## # A tibble: 48,604 × 5
##      .pred .pred_lower .pred_upper `FSC-A` `FSC-H`
##      <dbl>       <dbl>       <dbl>   <dbl>   <dbl>
##  1 103904.      93263.     114545.  94081.   85938
##  2  25829.      15187.      36470.  27751.   22111
##  3  40242.      29601.      50883.  54993.   33894
##  4 134483.     123842.     145124. 123255.  110936
##  5 126109.     115468.     136750. 119127.  104090
##  6 145690.     135049.     156331. 151935.  120098
##  7 172768.     162127.     183409. 176497.  142234
##  8 174384.     163743.     185025. 184517.  143555
##  9 135822.     125181.     146464. 126629.  112031
## 10 107285.      96644.     117926. 120084.   88702
## # ℹ 48,594 more rows
```

``` r
sc_aug[[1]] |> dplyr::filter(`FSC-A` >= .pred_lower & `FSC-A` <= .pred_upper)
```

```
## # A tibble: 40,178 × 18
##      .pred .resid event_id `FSC-A` `FSC-H` `SSC-A` `SSC-H` `APC-Cy7-A`
##      <dbl>  <dbl>    <int>   <dbl>   <dbl>   <dbl>   <dbl>       <dbl>
##  1 103904. -9823.        1  94081.   85938  89924.   82838        601.
##  2  25829.  1923.        2  27751.   22111  27091.   18591       4420 
##  3 126109. -6982.        5 119127.  104090  38621.   35738        664.
##  4 145690.  6244.        6 151935.  120098 135744.  116550       5845.
##  5 172768.  3729.        7 176497.  142234 141455.  118622       4368.
##  6 174384. 10133.        8 184517.  143555 152677.  128387       5012.
##  7 135822. -9194.        9 126629.  112031  47912.   44299        994.
##  8 125512. -7339.       13 118173.  103602  47515.   44594       1136.
##  9 132621. -7478.       14 125143.  109414  46935.   43158        141.
## 10 135270. -7347.       16 127922.  111579  43722.   40251        344.
## # ℹ 40,168 more rows
## # ℹ 10 more variables: `Pacific Blue-A` <dbl>, `AmCyan-A` <dbl>,
## #   `Qdot 605-A` <dbl>, `Qdot 655-A` <dbl>, `PE-A` <dbl>,
## #   `PE-Texas Red-A` <dbl>, `PE-Cy7-A` <dbl>, Time <dbl>, .pred_lower <dbl>,
## #   .pred_upper <dbl>
```
…
