…
  }
)

dbscan_filt[[1]]
```

```
## # A tibble: 3,420 × 5
##    event_id `FSC-H` `SSC-H` .cluster noise
##       <int>   <dbl>   <dbl> <fct>    <lgl>
##  1        1     371     396 1        FALSE
##  2        2     190      62 1        FALSE
##  3        3     141     197 1        FALSE
##  4        4     167     265 1        FALSE
##  5        5     128      30 1        FALSE
##  6        6     208      60 1        FALSE
##  7        7     172     280 1        FALSE
##  8        8     236     309 1        FALSE
##  9        9     353      87 1        FALSE
## 10       10      85     127 1        FALSE
## # ℹ 3,410 more rows
```
…
